{
  "actions": [
    {
      "name": "listInboundFirewallRules",
      "protocol": "REST",
      "method": "GET",
      "entitypath": "{base_path}/{version}/appliance/techpreview/networking/firewall/addr/inbound?{query}",
      "requestSchema": "schema.json",
      "responseSchema": "schema.json",
      "timeout": 0,
      "sendEmpty": false,
      "sendGetBody": false,
      "requestDatatype": "JSON",
      "responseDatatype": "JSON",
      "headers": {},
      "responseObjects": [
        {
          "type": "default",
          "key": "",
          "mockFile": ""
        }
      ]
    },
    {
      "name": "createInboundFirewallRule",
      "protocol": "REST",
      "method": "POST",
      "entitypath": "{base_path}/{version}/appliance/techpreview/networking/firewall/addr/inbound?{query}",
      "requestSchema": "schema.json",
      "responseSchema": "schema.json",
      "timeout": 0,
      "sendEmpty": false,
      "requestDatatype": "JSON",
      "responseDatatype": "JSON",
      "headers": {},
      "responseObjects": [
        {
          "type": "default",
          "key": "",
          "mockFile": ""
        }
      ]
    },
    {
      "name": "replaceInboundFirewallRule",
      "protocol": "REST",
      "method": "PUT",
      "entitypath": "{base_path}/{version}/appliance/techpreview/networking/firewall/addr/inbound?{query}",
      "requestSchema": "schema.json",
      "responseSchema": "schema.json",
      "timeout": 0,
      "sendEmpty": false,
      "requestDatatype": "JSON",
      "responseDatatype": "JSON",
      "headers": {},
      "responseObjects": [
        {
          "type": "default",
          "key": "",
          "mockFile": ""
        }
      ]
    },
    {
      "name": "deleteInboundFirewallRule",
      "protocol": "REST",
      "method": "POST",
      "entitypath": "{base_path}/{version}/appliance/techpreview/networking/firewall/addr/inbound/delete?{query}",
      "requestSchema": "schema.json",
      "responseSchema": "schema.json",
      "timeout": 0,
      "sendEmpty": false,
      "requestDatatype": "JSON",
      "responseDatatype": "JSON",
      "headers": {},
      "responseObjects": [
        {
          "type": "default",
          "key": "",
          "mockFile": ""
        }
      ]
    }
  ]
}