{
  "$id": "schema.json",
  "type": "object",
  "schema": "http://json-schema.org/draft-07/schema#",
  "translate": true,
  "dynamicfields": true,
  "properties": {
    "ph_request_type": {
      "type": "string",
      "description": "type of request (internal to adapter)",
      "default": "getDNSSearchDomains",
      "enum": [
        "getDNSSearchDomains",
        "setDNSSEARCHDomain",
        "addDNSSearchDomain",
        "getDomainName",
        "setDomainName",
        "testDomainName",
        "getDNSservers",
        "addDNSserver",
        "updateDNSserver",
        "testDNSservers",
        "getInterfaces",
        "getInterfaceDetails",
        "getIPv4",
        "setIPv4",
        "getIPv4Details",
        "renewIPv4",
        "getIPv6",
        "setIPv6",
        "getIPv6Details",
        "getNTPConfigurationStatus",
        "testNTPConfiguration",
        "addNTPServer",
        "setNTPServers",
        "deleteNTPServer",
        "getProxyConfigurations",
        "setProxyConfiguration",
        "testProxyConfiguration",
        "deleteProxyConfiguration",
        "listNetworkRoutes",
        "setNetworkRoutes",
        "testNetworkRoutes",
        "deleteNetworkRoutes"
      ],
      "external_name": "ph_request_type"
    },
    "interfaceParam": {
      "type": "string",
      "description": "id of interface",
      "parse": false,
      "encode": false,
      "encrypt": {
        "type": "AES",
        "key": ""
      },
      "external_name": "interface"
    }
  },
  "definitions": {}
}